%YAML 1.1
%TAG !u! tag:unity3d.com,2011:
--- !u!114 &11400000
MonoBehaviour:
  m_ObjectHideFlags: 0
  m_CorrespondingSourceObject: {fileID: 0}
  m_PrefabInstance: {fileID: 0}
  m_PrefabAsset: {fileID: 0}
  m_GameObject: {fileID: 0}
  m_Enabled: 1
  m_EditorHideFlags: 0
  m_Script: {fileID: 11500000, guid: 2bd3edc54bfb0d1429302f4f2f364f06, type: 3}
  m_Name: Quest1
  m_EditorClassIdentifier: 
  serializationData:
    SerializedFormat: 2
    SerializedBytes: 
    ReferencedUnityObjects: []
    SerializedBytesString: 
    Prefab: {fileID: 0}
    PrefabModificationsReferencedUnityObjects: []
    PrefabModifications: []
    SerializationNodes:
    - Name: onQuestStarted
      Entry: 7
      Data: 0|System.Collections.Generic.List`1[[Quest_System.IAction, QuestSystem]],
        mscorlib
    - Name: 
      Entry: 12
      Data: 1
    - Name: 
      Entry: 7
      Data: 1|Quest_System.SpecificAction, QuestSystem
    - Name: 
      Entry: 8
      Data: 
    - Name: 
      Entry: 13
      Data: 
    - Name: 
      Entry: 8
      Data: 
  name: Quest1
  tasks:
  - {fileID: 11400000, guid: b5f9952dfaa0a9e489763ebf4f703a62, type: 2}
  unlockedQuestsOnComplete:
  - {fileID: 11400000, guid: e758d8d115d949949b3a11f660285622, type: 2}
