{
    "name": "EditModeTests",
    "rootNamespace": "",
    "references": [
        "UnityEngine.TestRunner",
        "UnityEditor.TestRunner",
        "QuestSystem"
    ],
    "includePlatforms": [
        "Editor"
    ],
    "excludePlatforms": [],
    "allowUnsafeCode": false,
    "overrideReferences": true,
    "precompiledReferences": [
        "nunit.framework.dll",
        "NSubstitute.dll",
        "Sirenix.Serialization.dll"
    ],
    "autoReferenced": false,
    "defineConstraints": [
        "UNITY_INCLUDE_TESTS"
    ],
    "versionDefines": [],
    "noEngineReferences": false
}